^C:\USERS\USER\DOCUMENTS\VISUAL STUDIO 2013\PROJECTS\G2_SIMPLEMACRO\DLL\STDAFX.CPP
/c /ZI /nologo /W3 /WX- /sdl /Od /Oy- /D WIN32 /D _DEBUG /D _WINDOWS /D _USRDLL /D DLL_EXPORTS /D _WINDLL /D _UNICODE /D UNICODE /Gm /EHsc /RTC1 /MTd /GS /fp:precise /Zc:wchar_t /Zc:forScope /Yc"stdafx.h" /Fp"DEBUG\DLL.PCH" /Fo"DEBUG\\" /Fd"DEBUG\VC120.PDB" /Gd /TP /analyze- C:\USERS\USER\DOCUMENTS\VISUAL STUDIO 2013\PROJECTS\G2_SIMPLEMACRO\DLL\STDAFX.CPP
^C:\USERS\USER\DOCUMENTS\VISUAL STUDIO 2013\PROJECTS\G2_SIMPLEMACRO\DLL\DLL.CPP
/c /ZI /nologo /W3 /WX- /sdl /Od /Oy- /D WIN32 /D _DEBUG /D _WINDOWS /D _USRDLL /D DLL_EXPORTS /D _WINDLL /D _UNICODE /D UNICODE /Gm /EHsc /RTC1 /MTd /GS /fp:precise /Zc:wchar_t /Zc:forScope /Yu"stdafx.h" /Fp"DEBUG\DLL.PCH" /Fo"DEBUG\\" /Fd"DEBUG\VC120.PDB" /Gd /TP /analyze- C:\USERS\USER\DOCUMENTS\VISUAL STUDIO 2013\PROJECTS\G2_SIMPLEMACRO\DLL\DLL.CPP
^C:\USERS\USER\DOCUMENTS\VISUAL STUDIO 2013\PROJECTS\G2_SIMPLEMACRO\DLL\DLLMAIN.CPP
/c /ZI /nologo /W3 /WX- /sdl /Od /Oy- /D WIN32 /D _DEBUG /D _WINDOWS /D _USRDLL /D DLL_EXPORTS /D _WINDLL /D _UNICODE /D UNICODE /Gm /EHsc /RTC1 /MTd /GS /fp:precise /Zc:wchar_t /Zc:forScope /Fo"DEBUG\\" /Fd"DEBUG\VC120.PDB" /Gd /TP /analyze- C:\USERS\USER\DOCUMENTS\VISUAL STUDIO 2013\PROJECTS\G2_SIMPLEMACRO\DLL\DLLMAIN.CPP
