^C:\USERS\USER\DESKTOP\G2_SIMPLEMACRO\SIMPLE_MACRO\STDAFX.CPP
/c /ZI /nologo /W3 /WX- /sdl /Od /Oy- /D WIN32 /D _DEBUG /D _WINDOWS /D _UNICODE /D UNICODE /D _CRT_SECURE_NO_WARNINGS /Gm /EHsc /RTC1 /MTd /GS /fp:precise /Zc:wchar_t /Zc:forScope /Yc"stdafx.h" /Fp"DEBUG\SIMPLE_MACRO.PCH" /Fo"DEBUG\\" /Fd"DEBUG\VC120.PDB" /Gd /TP /analyze- C:\USERS\USER\DESKTOP\G2_SIMPLEMACRO\SIMPLE_MACRO\STDAFX.CPP
^C:\USERS\USER\DESKTOP\G2_SIMPLEMACRO\SIMPLE_MACRO\SIMPLE_MACRO.CPP
/c /ZI /nologo /W3 /WX- /sdl /Od /Oy- /D WIN32 /D _DEBUG /D _WINDOWS /D _UNICODE /D UNICODE /D _CRT_SECURE_NO_WARNINGS /Gm /EHsc /RTC1 /MTd /GS /fp:precise /Zc:wchar_t /Zc:forScope /Yu"stdafx.h" /Fp"DEBUG\SIMPLE_MACRO.PCH" /Fo"DEBUG\\" /Fd"DEBUG\VC120.PDB" /Gd /TP /analyze- C:\USERS\USER\DESKTOP\G2_SIMPLEMACRO\SIMPLE_MACRO\SIMPLE_MACRO.CPP
