^C:\USERS\USER\DESKTOP\G2_SIMPLEMACRO\SIMPLE_MACRO\DEBUG\SIMPLE_MACRO.OBJ|C:\USERS\USER\DESKTOP\G2_SIMPLEMACRO\SIMPLE_MACRO\DEBUG\SIMPLE_MACRO.RES|C:\USERS\USER\DESKTOP\G2_SIMPLEMACRO\SIMPLE_MACRO\DEBUG\STDAFX.OBJ
C:\USERS\USER\DESKTOP\G2_SIMPLEMACRO\DEBUG\SIMPLE_MACRO.ILK
C:\USERS\USER\DESKTOP\G2_SIMPLEMACRO\DEBUG\SIMPLE_MACRO.EXE
C:\USERS\USER\DESKTOP\G2_SIMPLEMACRO\DEBUG\SIMPLE_MACRO.PDB
